…
``` r
fast_food_summary <- obesity %>%
  group_by(gender, age) %>%
  summarise(Avg_Fast_Food = mean(freq_fast_food, na.rm = TRUE))
```

    ## `summarise()` has grouped output by 'gender'. You can override using the
    ## `.groups` argument.

``` r
print(fast_food_summary)
```

    ## # A tibble: 158 × 3
    ## # Groups:   gender [2]
    ##    gender   age Avg_Fast_Food
    ##    <fct>  <dbl>         <dbl>
    ##  1 Female     2          1.66
    ##  2 Female     3          1.78
    ##  3 Female     4          1.40
    ##  4 Female     5          1.42
    ##  5 Female     6          1.79
    ##  6 Female     7          1.67
    ##  7 Female     8          1.77
    ##  8 Female     9          1.81
    ##  9 Female    10          2.01
    ## 10 Female    11          1.70
    ## # ℹ 148 more rows

``` r
frozen_food_summary <- obesity %>%
  group_by(gender, age) %>%
  summarise(Avg_Frozen_Food = mean(freq_frozen, na.rm = TRUE))
```

    ## `summarise()` has grouped output by 'gender'. You can override using the
    ## `.groups` argument.

``` r
print(frozen_food_summary)
```

    ## # A tibble: 158 × 3
    ## # Groups:   gender [2]
    ##    gender   age Avg_Frozen_Food
    ##    <fct>  <dbl>           <dbl>
    ##  1 Female     2            2.48
    ##  2 Female     3            2.32
    ##  3 Female     4            2.70
    ##  4 Female     5            2.96
    ##  5 Female     6            2.44
    ##  6 Female     7            2.37
    ##  7 Female     8            2.51
    ##  8 Female     9           52.0 
    ##  9 Female    10            2.08
    ## 10 Female    11            3.02
    ## # ℹ 148 more rows
